<?xml version="1.0" encoding="utf-8"?>
<!-- Generator: Adobe Illustrator 24.2.3, SVG Export Plug-In . SVG Version: 6.00 Build 0)  -->
<svg version="1.1" id="Capa_1" xmlns="http://www.w3.org/2000/svg" xmlns:xlink="http://www.w3.org/1999/xlink" x="0px" y="0px"
	 viewBox="0 0 512 512" style="enable-background:new 0 0 512 512;" xml:space="preserve">
<style type="text/css">
	.st0{fill:#5E54AC;}
	.st1{fill:#F9C5AC;}
	.st2{fill:#EFB29A;}
	.st3{fill:#DD636E;}
	.st4{fill:#2F373B;}
	.st5{fill:#F4DD45;}
</style>
<g>
	<path class="st0" d="M512,256c0,141.4-114.6,256-256,256c-40.3,0-78.4-9.3-112.3-25.9c-16.7-8.2-95.3-80.1-98.8-85.3
		C16.6,359.7,0,309.8,0,256c0-34.1,6.7-66.7,18.8-96.5c0.2-0.4,0.3-0.8,0.5-1.2C57.7,65.4,149.2,0,256,0c7.5,0,15,0.3,22.3,1
		c17,1.5,33.5,4.6,49.3,9.2c12.4,3.6,24.4,8.1,35.9,13.5C451.2,64.3,512,153,512,256z"/>
	<path class="st1" d="M293.5,425.8l-138,48.5l-11.8,11.8c-34.2-16.7-64.1-40.8-87.7-70.2l108.3-108.3l138.8-77.6l27,131.1
		C335.8,388.7,320.2,416.4,293.5,425.8L293.5,425.8z"/>
	<path class="st2" d="M194.3,352.1l-3.2-3.2l81.2-81.2l26.7,26.7l-57.6,57.6C228.4,365.1,207.3,365.1,194.3,352.1L194.3,352.1z"/>
	<g>
		<g>
			<path class="st3" d="M492.3,126c5.1,6.8,4.8,16.2-0.8,22.6c-58.6,67-121.4,129.9-188.5,188.5c-6.4,5.6-15.8,5.9-22.6,0.8
				C252.8,317,227.1,294,203.5,269c-11-11.6-21.5-23.7-31.6-36.2c-4.2-5.1-8.2-10.4-12.2-15.7c-5.1-6.8-4.8-16.2,0.8-22.6
				C219.1,127.5,282,64.7,349,6.1c6.4-5.6,15.8-5.9,22.6-0.8c5.3,4,10.5,8.1,15.7,12.2c12.5,10.1,24.6,20.6,36.2,31.6
				C448.5,72.7,471.4,98.3,492.3,126z"/>
			<g>
				<path class="st4" d="M387.3,17.5c12.5,10.1,24.6,20.6,36.2,31.6"/>
				<path class="st4" d="M263.8,252.1l-20.4,20.4c-3.6,3.6-9.5,3.6-13.2,0s-3.6-9.5,0-13.2l20.4-20.4c3.6-3.6,9.5-3.6,13.2,0
					S267.4,248.4,263.8,252.1L263.8,252.1z"/>
				<path class="st4" d="M303,212.8l-20.4,20.4c-3.6,3.6-9.5,3.6-13.2,0s-3.6-9.5,0-13.2l20.4-20.4c3.6-3.6,9.5-3.6,13.2,0
					C306.7,203.3,306.7,209.2,303,212.8z"/>
				<path class="st4" d="M342.3,173.6L321.9,194c-3.6,3.6-9.5,3.6-13.2,0s-3.6-9.5,0-13.2l20.4-20.4c3.6-3.6,9.5-3.6,13.2,0
					S345.9,169.9,342.3,173.6z"/>
				<path class="st4" d="M381.5,134.3l-20.4,20.4c-3.6,3.6-9.5,3.6-13.2,0s-3.6-9.5,0-13.2l20.4-20.4c3.6-3.6,9.5-3.6,13.2,0
					C385.1,124.8,385.1,130.7,381.5,134.3z"/>
				<path class="st4" d="M333.4,281.6l-37,37c-3.6,3.6-9.5,3.6-13.2,0s-3.6-9.5,0-13.2l37-37c3.6-3.6,9.5-3.6,13.2,0
					C337,272.1,337,278,333.4,281.6z"/>
			</g>
			<path class="st5" d="M428.8,114.3l-38,38c-5.6,5.6-5.6,14.7,0,20.3l12.1,12.1c5.6,5.6,14.7,5.6,20.3,0l38-38
				c5.6-5.6,5.6-14.7,0-20.3l-12.1-12.1C443.6,108.6,434.5,108.6,428.8,114.3z"/>
		</g>
		<path class="st1" d="M322.5,230.9L96.9,456.5c-15.1-12-28.8-25.6-40.8-40.7c-3.9-4.9-7.6-9.9-11.2-15l30-30l-0.5-26.8
			c-1-52.2,38.4-96.3,90.4-101.3l28.8-2.7l69-69c8.3-8.3,19.1-12.4,29.9-12.4c10.8,0,21.7,4.1,29.9,12.4
			C339,187.6,339,214.4,322.5,230.9L322.5,230.9z"/>
		<path class="st2" d="M330.5,182.1c-5.9-2.9-12.4-4.4-18.8-4.4c-10.8,0-21.7,4.1-29.9,12.4l-69,69l-2.1,0.2
			c-67,6.4-117.9,63.3-116.6,130.6l-32.5,32.5c-1.9-2.2-3.7-4.4-5.5-6.6c-3.9-4.9-7.6-9.9-11.2-15l30-30l-0.5-26.8
			c-1-52.2,38.4-96.3,90.4-101.3l28.8-2.7l69-69c8.3-8.3,19.1-12.4,29.9-12.4c10.8,0,21.6,4.1,29.9,12.4
			C325.9,174.4,328.5,178.1,330.5,182.1z"/>
	</g>
</g>
<g>
	<path class="st4" d="M377.7,61.1c-8.5,9.2-8,23.6,1.2,32.2s23.6,8,32.2-1.2c8.5-9.2,8-23.6-1.2-32.2
		C400.6,51.4,386.2,51.9,377.7,61.1z M382.7,65.8c2.8-3.1,7.6-3.2,10.6-0.4c3.1,2.8,3.2,7.6,0.4,10.6c-2.8,3.1-7.6,3.2-10.6,0.4
		C380,73.6,379.9,68.8,382.7,65.8z M406.7,88c-2.8,3-6.5,4.8-10.3,5.3c-0.9,0.1-1.9-0.2-2.6-0.8c-3.1-2.9-3.2-7.7-0.4-10.8l6-6.4
		c2.9-3.1,7.7-3.3,10.7-0.4c0.7,0.6,1.1,1.5,1,2.5C411,81.2,409.5,85,406.7,88z"/>
</g>
</svg>
